"ΕΛΛΗΝΙΚΗ ΑΥΓΗ ΓΙΑ ΤΗ ΣΤΕΡΕΑ ΕΛΛΑΔΑ","696969"
"ΛΑΪΚΗ ΣΥΣΠΕΙΡΩΣΗ ΣΤΕΡΕΑΣ ΕΛΛΑΔΑΣ","FF0000"
"Η Στερεά σε νέα τροχιά - Βαγγέλης Αποστόλου", "FF8C00"
"αλλάζουμε Στην καρδιά της Ελλάδας", "6495ED"
"ΑΡΙΣΤΕΡΗ ΠΑΡΕΜΒΑΣΗ ΣΤΗ ΣΤΕΡΕΑ ΕΛΛΑΔΑ", B03060
"ΘΑΝΑΣΗΣ ΓΙΑΝΝΟΠΟΥΛΟΣ - ΣΥΜΦΩΝΙΑ ΓΙΑ ΤΗ ΣΤΕΡΕΑ", 7FFFD4
"ΕΝΕΡΓΟΙ ΠΟΛΙΤΕΣ ΣΤΕΡΕΑΣ", FFD700
